1 IF PEEK(&HF673)<&HE1 THEN PRINT"NO ENOUGH MEMORY.":END
30 BLOAD "STORM"
31 DEFUSR=&HFD9F:FORA=0TO255:B=USR(0):NEXTA
32 POKE&HB39F,&H50+&B1100
33 POKE&HB3A7,&H50+&B1100
34 POKE&HB3CC,&HD0+&B1100
35 POKE&HB3D1,&H90+&B1100
38 POKE&HDE82,&HEC:POKE&HDE83,&H88
39 DEFUSR=&HA083:A=USR(0)
